<?xml version="1.0" encoding="iso-8859-1"?>
<!-- Generator: Adobe Illustrator 19.0.0, SVG Export Plug-In . SVG Version: 6.00 Build 0)  -->
<svg version="1.1" id="Capa_1" xmlns="http://www.w3.org/2000/svg" xmlns:xlink="http://www.w3.org/1999/xlink" x="0px" y="0px"
	 viewBox="0 0 464 464" style="enable-background:new 0 0 464 464;" xml:space="preserve">
<path style="fill:#50BB65;" d="M0,112h464l0,0v328c0,13.255-10.745,24-24,24l0,0H24c-13.255,0-24-10.745-24-24l0,0V112L0,112z"/>
<g>
	<rect x="200" y="392" style="fill:#006837;" width="16" height="16"/>
	<rect x="200" y="280" style="fill:#006837;" width="16" height="16"/>
	<rect x="88" y="264" style="fill:#006837;" width="16" height="16"/>
	<rect x="88" y="152" style="fill:#006837;" width="16" height="16"/>
	<rect x="384" y="392" style="fill:#006837;" width="16" height="16"/>
	<rect x="384" y="280" style="fill:#006837;" width="16" height="16"/>
</g>
<polygon style="fill:#E6E6E6;" points="424,320 312,320 312,232 424,232 424,184 264,184 264,320 176,320 176,112 128,112 128,192 
	40,192 40,240 128,240 128,464 176,464 176,368 424,368 "/>
<path style="fill:#DA4836;" d="M288,56c0,48-56,96-56,96s-56-48-56-96c0-30.928,25.072-56,56-56S288,25.072,288,56z"/>
<circle style="fill:#E6E6E6;" cx="232" cy="56" r="24"/>
<g>
	<path style="fill:#009245;" d="M464,256V112c0-13.255-10.745-24-24-24h-16v328h16c13.255,0,24,10.745,24,24V256z"/>
	<path style="fill:#009245;" d="M0,256V112c0-13.255,10.745-24,24-24h16v328H24c-13.255,0-24,10.745-24,24V256z"/>
</g>
<g>
</g>
<g>
</g>
<g>
</g>
<g>
</g>
<g>
</g>
<g>
</g>
<g>
</g>
<g>
</g>
<g>
</g>
<g>
</g>
<g>
</g>
<g>
</g>
<g>
</g>
<g>
</g>
<g>
</g>
</svg>
